…
Franch_GoalRcrds <- getFranGoalieRecord(name = "Boston Bruins")
```

    ## Warning in if (is.null(ID) == F) {: the condition has length > 1 and
    ## only the first element will be used

    ## No encoding supplied: defaulting to UTF-8.

``` r
Franch_GoalRcrds
```

    ## # A tibble: 51 x 29
    ##       id activePlayer firstName franchiseId franchiseName gameTypeId
    ##    <int> <lgl>        <chr>           <int> <chr>              <int>
    ##  1   247 FALSE        Gerry               6 Boston Bruins          2
    ##  2   290 FALSE        Tiny                6 Boston Bruins          2
    ##  3   300 FALSE        Eddie               6 Boston Bruins          2
    ##  4   321 TRUE         Tuukka              6 Boston Bruins          2
    ##  5   347 FALSE        Yves                6 Boston Bruins          2
    ##  6   352 FALSE        Daniel              6 Boston Bruins          2
    ##  7   356 FALSE        Craig               6 Boston Bruins          2
    ##  8   374 FALSE        Jon                 6 Boston Bruins          2
    ##  9   380 FALSE        Tim                 6 Boston Bruins          2
    ## 10   427 FALSE        Gilles              6 Boston Bruins          2
    ## # ... with 41 more rows, and 23 more variables: gamesPlayed <int>,
    ## #   lastName <chr>, losses <int>, mostGoalsAgainstDates <chr>,
    ## #   mostGoalsAgainstOneGame <int>, mostSavesDates <chr>,
    ## #   mostSavesOneGame <int>, mostShotsAgainstDates <chr>,
    ## #   mostShotsAgainstOneGame <int>, mostShutoutsOneSeason <int>,
    ## #   mostShutoutsSeasonIds <chr>, mostWinsOneSeason <int>,
    ## #   mostWinsSeasonIds <chr>, overtimeLosses <int>, playerId <int>,
    ## #   positionCode <chr>, rookieGamesPlayed <int>,
    ## #   rookieShutouts <int>, rookieWins <int>, seasons <int>,
…
Bruin_Sk8rRcrds <- getFranSkaterRecord(name = "Boston Bruins")
```

    ## Warning in if (is.null(ID) == F) {: the condition has length > 1 and
    ## only the first element will be used

    ## No encoding supplied: defaulting to UTF-8.

``` r
Bruin_Sk8rRcrds
```

    ## # A tibble: 910 x 30
    ##       id activePlayer assists firstName franchiseId franchiseName
    ##    <int> <lgl>          <int> <chr>           <int> <chr>        
    ##  1 16890 FALSE            794 Johnny              6 Boston Bruins
    ##  2 16892 FALSE           1111 Ray                 6 Boston Bruins
    ##  3 17027 FALSE            402 Terry               6 Boston Bruins
    ##  4 17046 FALSE            553 Phil                6 Boston Bruins
    ##  5 17078 FALSE            624 Bobby               6 Boston Bruins
    ##  6 17108 FALSE             20 Jay                 6 Boston Bruins
    ##  7 17157 FALSE            385 Ken                 6 Boston Bruins
    ##  8 17161 FALSE            496 Rick                6 Boston Bruins
    ##  9 17194 FALSE              4 Henry               6 Boston Bruins
    ## 10 17197 FALSE             20 Norm                6 Boston Bruins
    ## # ... with 900 more rows, and 24 more variables: gameTypeId <int>,
    ## #   gamesPlayed <int>, goals <int>, lastName <chr>,
    ## #   mostAssistsGameDates <chr>, mostAssistsOneGame <int>,
    ## #   mostAssistsOneSeason <int>, mostAssistsSeasonIds <chr>,
    ## #   mostGoalsGameDates <chr>, mostGoalsOneGame <int>,
    ## #   mostGoalsOneSeason <int>, mostGoalsSeasonIds <chr>,
    ## #   mostPenaltyMinutesOneSeason <int>,
    ## #   mostPenaltyMinutesSeasonIds <chr>, mostPointsGameDates <chr>,
    ## #   mostPointsOneGame <int>, mostPointsOneSeason <int>,
…
